<?xml version="1.0" encoding="utf-8"?>
<!-- Generator: Adobe Illustrator 19.1.0, SVG Export Plug-In . SVG Version: 6.00 Build 0)  -->
<svg version="1.1" id="Capa_1" xmlns="http://www.w3.org/2000/svg" xmlns:xlink="http://www.w3.org/1999/xlink" x="0px" y="0px"
	 viewBox="0 0 32 32" style="enable-background:new 0 0 32 32;" xml:space="preserve">
<style type="text/css">
	.st0{fill:#E0751B;stroke:#FFFFFF;stroke-width:1.5977;stroke-miterlimit:10;}
</style>
<g>
	<path class="st0" d="M20.905,29.479c1.624,0.007,3.122-0.399,4.512-1.214c1.096-0.643,1.985-1.537,2.884-2.41
		c0.66-0.641,0.715-1.439,0.256-2.243c-0.171-0.299-0.363-0.605-0.612-0.835c-0.893-0.828-1.794-1.649-2.734-2.422
		c-0.421-0.346-0.921-0.615-1.421-0.841c-1.038-0.469-2.037-0.352-2.915,0.393c-0.599,0.509-1.171,1.052-1.738,1.597
		c-0.594,0.571-1.277,0.794-2.084,0.602c-0.88-0.209-1.605-0.708-2.292-1.265c-1.289-1.045-2.379-2.284-3.403-3.582
		c-0.756-0.958-1.454-1.96-1.86-3.126c-0.443-1.273-0.291-2.302,0.905-3.129c0.598-0.414,1.139-0.915,1.681-1.404
		c0.404-0.364,0.665-0.828,0.772-1.372c0.168-0.845-0.042-1.635-0.434-2.357c-0.527-0.969-1.11-1.911-1.717-2.833
		C10.4,2.574,10.017,2.149,9.62,1.756c-0.809-0.8-1.765-0.843-2.657-0.135C6.36,2.098,5.781,2.604,5.204,3.112
		C4.959,3.328,4.733,3.57,4.522,3.82c-1.838,2.188-2.372,4.727-1.977,7.5c0.276,1.936,1.01,3.713,1.963,5.406
		c1.501,2.668,3.428,5.007,5.575,7.171c1.592,1.604,3.328,3.027,5.334,4.094C17.136,28.905,18.949,29.483,20.905,29.479z"/>
	<path class="st0" d="M20.905,29.479c-1.956,0.004-3.769-0.574-5.488-1.488c-2.005-1.066-3.742-2.49-5.334-4.094
		c-2.147-2.164-4.075-4.503-5.575-7.171c-0.952-1.693-1.687-3.471-1.963-5.406C2.15,8.547,2.684,6.008,4.522,3.82
		c0.21-0.25,0.437-0.492,0.682-0.708C5.781,2.604,6.36,2.098,6.962,1.621C7.855,0.913,8.81,0.956,9.62,1.756
		c0.398,0.393,0.781,0.817,1.087,1.283c0.607,0.922,1.19,1.864,1.717,2.833c0.392,0.722,0.602,1.512,0.434,2.357
		c-0.108,0.544-0.369,1.008-0.772,1.372c-0.542,0.489-1.082,0.991-1.681,1.404c-1.197,0.827-1.348,1.857-0.905,3.129
		c0.406,1.166,1.104,2.167,1.86,3.126c1.023,1.298,2.113,2.537,3.403,3.582c0.687,0.557,1.412,1.055,2.292,1.265
		c0.807,0.192,1.49-0.03,2.084-0.602c0.567-0.545,1.138-1.088,1.738-1.597c0.878-0.746,1.877-0.862,2.915-0.393
		c0.5,0.226,1,0.495,1.421,0.841c0.94,0.773,1.841,1.594,2.734,2.422c0.249,0.231,0.441,0.537,0.612,0.835
		c0.459,0.804,0.404,1.602-0.256,2.243c-0.898,0.873-1.788,1.767-2.884,2.41C24.026,29.08,22.529,29.486,20.905,29.479z"/>
</g>
</svg>
