<?xml version="1.0" encoding="utf-8"?>
<!-- Generator: Adobe Illustrator 19.1.0, SVG Export Plug-In . SVG Version: 6.00 Build 0)  -->
<svg version="1.1" xmlns="http://www.w3.org/2000/svg" xmlns:xlink="http://www.w3.org/1999/xlink" x="0px" y="0px"
	 viewBox="0 0 18.417 13.833" style="enable-background:new 0 0 18.417 13.833;" xml:space="preserve">
<style type="text/css">
	.st0{display:none;}
	.st1{display:inline;}
	.st2{fill:#FFFFFF;}
	.st3{fill:none;stroke:#E1751B;stroke-width:1.145;stroke-miterlimit:10;}
	.st4{fill:#E1751B;}
	.st5{fill:none;stroke:#E1751B;stroke-width:1.21;stroke-miterlimit:10;}
</style>
<g id="Capa_1">
</g>
<g id="Capa_7">
</g>
<g id="Capa_2">
	<g class="st0">
		<path class="st1" d="M552.698,1.762h0.695l0.277-1.03h-0.689l0.094-0.347h0.689l0.361-1.341h0.445l-0.361,1.341h0.669l0.363-1.341
			h0.437l-0.363,1.341h0.696l-0.095,0.347h-0.695l-0.279,1.03h0.696l-0.095,0.347h-0.695l-0.36,1.332h-0.438l0.36-1.332h-0.666
			l-0.358,1.332h-0.446l0.359-1.332h-0.691L552.698,1.762z M554.505,1.762l0.278-1.03h-0.667l-0.278,1.03H554.505z"/>
	</g>
	<rect x="0.667" y="0.649" class="st2" width="17.083" height="11.882"/>
	<rect x="0.667" y="0.649" class="st3" width="17.083" height="11.882"/>
	<path class="st2" d="M10.015,5.11c0,1.568-1.271,2.839-2.839,2.839c-1.567,0-2.838-1.271-2.838-2.839
		c0-1.568,1.271-2.839,2.838-2.839C8.744,2.271,10.015,3.542,10.015,5.11"/>
	<path class="st2" d="M12.254,12.403c0,1.568-2.273,0.29-5.077,0.29c-2.804,0-5.077,1.278-5.077-0.29
		c0-1.568,2.273-2.839,5.077-2.839C9.981,9.564,12.254,10.835,12.254,12.403"/>
	<g>
		<path class="st4" d="M16.185,5.053c-0.024-0.031-0.061-0.049-0.1-0.049h-0.828l0.476-1.75c0.009-0.038,0.002-0.078-0.022-0.11
			c-0.024-0.03-0.06-0.048-0.099-0.048H14.99c-0.056,0-0.105,0.038-0.121,0.091l-0.492,1.817h-0.693l0.472-1.751
			c0.01-0.037,0.002-0.077-0.021-0.109c-0.024-0.03-0.061-0.048-0.1-0.048h-0.633c-0.057,0-0.107,0.038-0.122,0.092l-0.489,1.816
			h-0.885c-0.056,0-0.105,0.038-0.121,0.093l-0.133,0.494c-0.01,0.037-0.002,0.077,0.021,0.108c0.024,0.03,0.061,0.049,0.1,0.049
			h0.818l-0.327,1.216h-0.895c-0.056,0-0.106,0.038-0.121,0.094L11.12,7.551c-0.009,0.037-0.001,0.077,0.023,0.107
			c0.023,0.031,0.059,0.049,0.098,0.049h0.822l-0.47,1.739c-0.01,0.037-0.002,0.077,0.021,0.109c0.025,0.03,0.061,0.048,0.1,0.048
			h0.636c0.056,0,0.106-0.038,0.121-0.092l0.484-1.804h0.69l-0.472,1.739c-0.01,0.037-0.002,0.077,0.022,0.109
			c0.024,0.03,0.06,0.048,0.099,0.048h0.623c0.057,0,0.106-0.038,0.121-0.092l0.488-1.804h0.894c0.057,0,0.106-0.038,0.12-0.092
			l0.135-0.493c0.011-0.038,0.003-0.078-0.021-0.109c-0.023-0.031-0.06-0.049-0.099-0.049h-0.828l0.33-1.216h0.893
			c0.057,0,0.106-0.038,0.121-0.092l0.134-0.494C16.216,5.124,16.208,5.084,16.185,5.053 M14.175,5.748l-0.328,1.216h-0.691
			l0.329-1.216H14.175z"/>
		<circle class="st5" cx="7.177" cy="5.15" r="2.839"/>
		<path class="st5" d="M12.254,12.442c0,1.568-2.273,0.29-5.077,0.29c-2.804,0-5.077,1.278-5.077-0.29
			c0-1.568,2.273-2.839,5.077-2.839C9.981,9.603,12.254,10.874,12.254,12.442z"/>
	</g>
</g>
<g id="Capa_3">
</g>
<g id="Capa_5">
</g>
<g id="Capa_6">
</g>
<g id="Capa_10">
</g>
<g id="Capa_31">
	<g>
	</g>
	<g>
	</g>
	<g>
	</g>
	<g>
	</g>
	<g>
	</g>
	<g>
	</g>
</g>
</svg>
