<?xml version="1.0" encoding="utf-8"?>
<!-- Generator: Adobe Illustrator 19.1.0, SVG Export Plug-In . SVG Version: 6.00 Build 0)  -->
<svg version="1.1" id="Capa_1" xmlns="http://www.w3.org/2000/svg" xmlns:xlink="http://www.w3.org/1999/xlink" x="0px" y="0px"
	 viewBox="-410 263.159 138.381 34.841" style="enable-background:new -410 263.159 138.381 34.841;" xml:space="preserve">
<style type="text/css">
	.st0{fill:#FF7500;}
</style>
<g>
	<path class="st0" d="M-371.001,288.199l1.087-0.09c1.178-0.122,1.178-0.273,1.178-3.958V273.64c0-3.684,0-3.835-1.178-3.957
		l-1.087-0.09v-0.663h7.884c2.869,0,7.34,0.452,7.34,5.436c0,4.108-4.592,6.011-7.43,6.011h-0.513v-0.665
		c1.297,0,4.772-0.604,4.772-5.165c0-3.535-2.387-4.622-5.105-4.622c-0.634,0-1.269,0.122-1.872,0.242v13.985
		c0,3.685,0,3.836,1.661,3.958l1.088,0.09v0.666H-371v-0.667H-371.001z"/>
	<path class="st0" d="M-356.033,280.971c0-5.246,4.056-8.501,8.744-8.501c4.469,0,8.234,2.841,8.234,8.233
		c0,5.345-3.888,8.526-8.695,8.526C-352.559,289.229-356.033,286.217-356.033,280.971 M-347.289,288.428
		c4.128,0,5.683-3.547,5.683-7.093c0-4.589-2.283-8.063-6.097-8.063c-3.643,0-5.779,3.036-5.779,7.238
		C-353.482,285.464-350.957,288.428-347.289,288.428"/>
	<path class="st0" d="M-331.708,279.659c1.92,1.094,3.912,2.113,3.912,5.027c0,3.278-3.036,4.542-5.611,4.542
		c-1.895,0-3.061-0.51-3.814-0.971c-0.437-0.947-0.777-2.746-0.777-4.275l0.777-0.193c0.267,1.747,1.166,4.637,4.493,4.637
		c1.677,0,2.915-1.093,2.915-2.988c0-1.772-1.482-2.988-3.375-3.837l-1.555-0.85c-1.385-0.753-2.673-2.26-2.673-4.08
		c0-2.965,2.48-4.203,5.053-4.203c1.505,0,2.719,0.389,3.351,0.777c0.195,0.777,0.243,2.746,0.243,3.351h-0.608
		c-0.243-1.214-0.632-3.327-3.376-3.327c-1.409,0-2.647,1.021-2.647,2.648c0,1.432,1.044,2.209,2.357,2.987L-331.708,279.659z"/>
	<path class="st0" d="M-327.717,288.329l0.875-0.072c0.946-0.097,0.946-0.219,0.946-3.18v-8.454c0-2.962,0-3.084-0.946-3.181
		l-0.875-0.072v-0.536h5.901v0.535l-0.875,0.072c-0.947,0.097-0.947,0.219-0.947,3.181v8.454c0,2.961,0,3.083,0.947,3.18
		l0.875,0.072v0.536h-5.901V288.329z"/>
	<path class="st0" d="M-317.013,288.329l0.899-0.072c1.335-0.097,1.335-0.219,1.335-3.18v-11.562h-1.262
		c-3.426,0-3.474,0.363-4.007,3.181h-0.582c0-0.097-0.049-0.752-0.049-1.07c0-1.117,0.169-2.257,0.266-2.793h13.529
		c0.097,0.535,0.268,1.676,0.268,2.793c0,0.317-0.049,0.972-0.049,1.07h-0.582c-0.535-2.818-0.584-3.181-4.008-3.181h-1.265v11.562
		c0,2.961,0,3.083,1.36,3.18l0.875,0.072v0.536h-6.727v-0.536H-317.013z"/>
	<path class="st0" d="M-305.767,288.329l0.874-0.072c0.947-0.097,0.947-0.219,0.947-3.18v-8.454c0-2.962,0-3.084-0.947-3.181
		l-0.874-0.072v-0.536h5.901v0.535l-0.874,0.072c-0.948,0.097-0.948,0.219-0.948,3.181v8.454c0,2.961,0,3.083,0.948,3.18
		l0.874,0.072v0.536h-5.901V288.329z"/>
	<path class="st0" d="M-297.024,275.311c-0.363-0.899-0.63-1.798-1.433-1.87l-0.704-0.073v-0.534h6.048v0.534l-0.753,0.073
		c-0.388,0.048-1.093,0.12-1.093,0.608c0,0.122,0.194,0.681,0.316,0.971l4.201,10.833c0.561-1.457,4.373-10.906,4.373-11.658
		c0-0.486-0.485-0.609-0.947-0.681l-1.094-0.146v-0.534h5.246v0.534l-0.632,0.146c-0.267,0.048-0.534,0.195-0.728,0.389
		c-0.534,0.535-1.312,2.866-1.919,4.032l-1.651,3.983c-1.385,3.352-2.598,6.315-2.818,6.947c-0.122,0.096-0.51,0.266-0.824,0.365
		L-297.024,275.311z"/>
	<path class="st0" d="M-288.19,288.329l0.461-0.072c0.923-0.146,1.044-0.412,1.627-1.822l5.052-12.289
		c0.195-0.486,0.389-0.972,0.584-1.434l0.704-0.242l5.416,14.062c0.365,0.971,0.608,1.53,1.239,1.652l0.971,0.144v0.535h-6.023
		v-0.534l1.093-0.194c0.439-0.072,0.754-0.195,0.754-0.461c0-0.171-0.099-0.34-0.147-0.51l-1.7-4.59
		c-0.9-0.171-1.798-0.244-2.695-0.244c-0.851,0-1.7,0.097-2.551,0.244l-1.239,3.375c-0.29,0.777-0.485,1.434-0.485,1.628
		c0,0.461,0.314,0.534,0.582,0.558l1.457,0.194v0.535h-5.099L-288.19,288.329L-288.19,288.329z M-283.09,281.65
		c0.73-0.048,1.482-0.12,2.21-0.12c0.777,0,1.555,0.024,2.332,0.12l-2.234-5.878L-283.09,281.65z"/>
	<path class="st0" d="M-356.597,295.114c-0.055,0.575-0.155,1.003-0.374,1.549c-0.255,0.119-0.995,0.348-1.879,0.348
		c-1.744,0-3.384-0.811-3.384-3.129c0-2.436,1.96-3.166,3.401-3.166c0.932,0,1.625,0.229,1.861,0.374
		c0.083,0.365,0.147,0.894,0.147,1.35l-0.246,0.054c-0.091-0.363-0.21-1.477-1.771-1.477c-1.494,0-2.435,0.985-2.435,2.691
		c0,1.56,0.748,3.002,2.409,3.002c1.514,0,1.743-0.922,2.025-1.652L-356.597,295.114z"/>
	<path class="st0" d="M-356.298,294.491c0-1.585,1.224-2.568,2.64-2.568c1.351,0,2.487,0.858,2.487,2.487
		c0,1.615-1.174,2.575-2.626,2.575C-355.251,296.985-356.298,296.076-356.298,294.491 M-353.659,296.743
		c1.248,0,1.718-1.072,1.718-2.142c0-1.386-0.69-2.436-1.841-2.436c-1.101,0-1.746,0.917-1.746,2.186
		C-355.529,295.847-354.766,296.743-353.659,296.743"/>
	<path class="st0" d="M-350.761,296.713l0.184-0.045c0.109-0.021,0.182-0.05,0.227-0.088c0.073-0.073,0.125-0.543,0.169-1.21
		l0.118-1.849c0.027-0.499,0.08-1.291,0.08-1.489l0.198-0.066c0.22,0.381,1.893,3.542,2.121,3.946
		c0.235-0.374,1.878-3.507,2.017-3.88l0.192-0.066c0,0.058,0.051,0.88,0.102,1.847l0.066,1.27c0.03,0.624,0.081,1.336,0.14,1.445
		c0.036,0.073,0.147,0.118,0.278,0.139l0.221,0.045v0.161h-1.879v-0.161l0.287-0.045c0.315-0.036,0.345-0.153,0.345-0.492
		c0-0.813-0.126-2.354-0.126-2.823h-0.014c-0.125,0.323-0.873,1.76-1.599,3.191c-0.036,0.073-0.066,0.161-0.102,0.234l-0.207,0.095
		c-0.16-0.337-1.091-2.127-1.598-3.096c-0.073-0.139-0.14-0.279-0.199-0.425h-0.013c-0.023,0.418-0.125,2.494-0.125,2.723
		c0,0.431,0,0.556,0.345,0.592l0.292,0.045v0.161h-1.517v-0.159H-350.761z"/>
	<path class="st0" d="M-344.313,296.713l0.265-0.023c0.285-0.03,0.285-0.066,0.285-0.96v-2.553c0-0.894,0-0.933-0.285-0.961
		l-0.265-0.021v-0.162h1.915c0.697,0,1.782,0.109,1.782,1.32c0,0.997-1.114,1.459-1.804,1.459h-0.125v-0.162
		c0.315,0,1.159-0.146,1.159-1.252c0-0.859-0.58-1.123-1.24-1.123c-0.153,0-0.308,0.028-0.454,0.059v3.396
		c0,0.894,0,0.931,0.404,0.96l0.263,0.023v0.161h-1.899L-344.313,296.713L-344.313,296.713z"/>
	<path class="st0" d="M-341.034,296.713l0.139-0.022c0.279-0.044,0.315-0.124,0.492-0.55l1.526-3.712
		c0.059-0.147,0.117-0.293,0.176-0.434l0.212-0.072l1.636,4.247c0.111,0.293,0.184,0.462,0.374,0.499l0.293,0.044v0.162h-1.818
		v-0.162l0.33-0.058c0.132-0.023,0.228-0.059,0.228-0.139c0-0.053-0.03-0.104-0.045-0.155l-0.512-1.386
		c-0.271-0.051-0.543-0.072-0.815-0.072c-0.257,0-0.513,0.028-0.771,0.072l-0.373,1.019c-0.089,0.235-0.148,0.432-0.148,0.492
		c0,0.14,0.095,0.162,0.176,0.17l0.44,0.058v0.162h-1.54C-341.034,296.876-341.034,296.713-341.034,296.713z M-339.493,294.696
		c0.22-0.014,0.448-0.038,0.668-0.038c0.234,0,0.469,0.009,0.704,0.038l-0.674-1.776L-339.493,294.696z"/>
	<path class="st0" d="M-336.316,296.714l0.263-0.023c0.287-0.022,0.339-0.249,0.339-1.041v-3.616l0.167-0.066
		c0.61,0.777,2.773,3.022,3.572,3.807v-2.516c0-0.807,0-1.006-0.404-1.042l-0.264-0.022v-0.161h1.584v0.161l-0.263,0.022
		c-0.265,0.021-0.316,0.25-0.316,1.042v3.616l-0.161,0.066c-0.161-0.17-0.616-0.652-1.378-1.437l-2.202-2.325v2.472
		c0,0.807,0,1.005,0.382,1.041l0.264,0.023v0.161h-1.584v-0.162H-336.316z M-334.703,291.372c0.089-0.147,0.351-0.616,0.74-0.616
		c0.176,0,0.353,0.073,0.529,0.141c0.184,0.072,0.374,0.146,0.565,0.146c0.205,0,0.344-0.228,0.403-0.308l0.096,0.088
		c-0.082,0.175-0.294,0.609-0.697,0.609c-0.353,0-0.844-0.286-1.093-0.286c-0.206,0-0.367,0.227-0.44,0.322L-334.703,291.372z"/>
	<path class="st0" d="M-330.719,296.713l0.263-0.023c0.286-0.03,0.286-0.066,0.286-0.96v-2.553c0-0.894,0-0.933-0.286-0.961
		l-0.263-0.021v-0.162h1.781v0.162l-0.264,0.021c-0.287,0.028-0.287,0.067-0.287,0.961v2.553c0,0.894,0,0.931,0.287,0.96
		l0.264,0.023v0.161h-1.781V296.713z"/>
	<path class="st0" d="M-328.923,296.713l0.14-0.022c0.279-0.044,0.315-0.124,0.492-0.55l1.526-3.712
		c0.058-0.147,0.117-0.293,0.175-0.434l0.213-0.072l1.636,4.247c0.109,0.293,0.183,0.462,0.373,0.499l0.293,0.044v0.162h-1.818
		v-0.162l0.33-0.058c0.132-0.023,0.228-0.059,0.228-0.139c0-0.053-0.03-0.104-0.044-0.155l-0.513-1.386
		c-0.273-0.051-0.543-0.072-0.815-0.072c-0.256,0-0.515,0.028-0.77,0.072l-0.374,1.019c-0.088,0.235-0.148,0.432-0.148,0.492
		c0,0.14,0.096,0.162,0.176,0.17l0.441,0.058v0.162h-1.541V296.713z M-327.382,294.696c0.219-0.014,0.447-0.038,0.667-0.038
		c0.234,0,0.47,0.009,0.704,0.038l-0.674-1.776L-327.382,294.696z"/>
	<path class="st0" d="M-322.442,296.74l0.218-0.018c0.239-0.024,0.239-0.055,0.239-0.797v-2.116c0-0.742,0-0.773-0.239-0.797
		l-0.218-0.019v-0.134h1.995c1.301,0,2.08,0.681,2.08,1.861c0,1.582-1.175,2.153-2.446,2.153h-1.629
		C-322.442,296.873-322.442,296.74-322.442,296.74z M-321.42,296.588c0.232,0.043,0.462,0.084,0.693,0.084
		c1.107,0,1.722-0.612,1.722-1.799c0-1.278-0.694-1.812-1.777-1.812c-0.213,0-0.426,0.031-0.638,0.059V296.588z"/>
	<path class="st0" d="M-317.911,296.74l0.219-0.018c0.238-0.024,0.238-0.055,0.238-0.797v-2.116c0-0.742,0-0.773-0.238-0.797
		l-0.219-0.019v-0.134h2.621c0.024,0.134,0.067,0.363,0.067,0.645c0,0.139-0.012,0.188-0.012,0.243l-0.146,0.024
		c-0.135-0.651-0.147-0.741-1.004-0.741h-0.506v1.673h0.543c0.474,0,0.584-0.007,0.62-0.256l0.031-0.207h0.158v1.095h-0.158
		l-0.031-0.207c-0.036-0.25-0.146-0.255-0.62-0.255h-0.543v1.751c0.22,0.044,0.446,0.08,0.663,0.08c0.968,0,1.028-0.365,1.15-0.864
		l0.152,0.024c-0.018,0.391-0.097,0.675-0.199,1.01h-2.786C-317.911,296.874-317.911,296.74-317.911,296.74z"/>
	<path class="st0" d="M-310.6,293.418c0.72,0.409,1.469,0.792,1.469,1.889c0,1.231-1.141,1.706-2.109,1.706
		c-0.71,0-1.15-0.193-1.432-0.365c-0.163-0.356-0.291-1.031-0.291-1.607l0.291-0.072c0.101,0.657,0.438,1.743,1.688,1.743
		c0.63,0,1.095-0.411,1.095-1.122c0-0.666-0.556-1.122-1.269-1.441l-0.584-0.321c-0.52-0.282-1.003-0.847-1.003-1.533
		c0-1.113,0.931-1.579,1.897-1.579c0.566,0,1.023,0.147,1.259,0.293c0.073,0.291,0.092,1.03,0.092,1.259h-0.229
		c-0.091-0.458-0.236-1.251-1.268-1.251c-0.53,0-0.995,0.383-0.995,0.995c0,0.538,0.393,0.83,0.886,1.122L-310.6,293.418z"/>
	<path class="st0" d="M-308.685,296.713l0.264-0.023c0.285-0.03,0.285-0.066,0.285-0.96v-2.553c0-0.894,0-0.933-0.285-0.961
		l-0.264-0.021v-0.162h3.161c0.03,0.162,0.081,0.439,0.081,0.777c0,0.169-0.015,0.228-0.015,0.293l-0.176,0.031
		c-0.161-0.786-0.175-0.897-1.21-0.897h-0.609v2.018h0.652c0.573,0,0.704-0.008,0.749-0.309l0.036-0.249h0.192v1.32h-0.192
		l-0.036-0.25c-0.045-0.3-0.176-0.308-0.749-0.308h-0.652v2.113c0.264,0.05,0.535,0.094,0.799,0.094c1.167,0,1.24-0.44,1.387-1.041
		l0.184,0.03c-0.023,0.47-0.118,0.815-0.243,1.217h-3.359C-308.685,296.872-308.685,296.713-308.685,296.713z"/>
	<path class="st0" d="M-300.096,296.617c-0.249,0.095-1.049,0.367-1.834,0.367c-1.475,0-2.795-0.645-2.795-2.516
		c0-1.957,1.578-2.545,2.736-2.545c0.749,0,1.306,0.183,1.497,0.3c0.067,0.294,0.117,0.719,0.117,1.086l-0.197,0.045
		c-0.073-0.295-0.17-1.19-1.424-1.19c-1.202,0-1.959,0.794-1.959,2.164c0,1.256,0.638,2.414,2.077,2.414
		c0.265,0,0.601-0.03,0.858-0.095v-0.27c0-0.896,0-0.932-0.515-0.962l-0.264-0.022v-0.161h1.863v0.161l-0.264,0.022
		c-0.138,0.031-0.138,0.067-0.138,0.777c0,0.22,0,0.265,0.116,0.265h0.073L-300.096,296.617z"/>
	<path class="st0" d="M-295.585,296.727c-0.102-0.103-0.161-0.206-0.272-0.206c-0.102,0-0.711,0.463-1.687,0.463
		c-1.518,0-1.643-0.873-1.643-1.871v-1.937c0-0.894,0-0.933-0.286-0.961l-0.264-0.021v-0.162h1.782v0.162l-0.264,0.021
		c-0.287,0.028-0.287,0.067-0.287,0.961v1.82c0,1.049,0.177,1.746,1.315,1.746c0.763,0,1.216-0.455,1.326-0.587v-2.979
		c0-0.894,0-0.933-0.285-0.961l-0.264-0.021v-0.162h1.781v0.162l-0.264,0.021c-0.286,0.028-0.286,0.067-0.286,0.961v3.697
		l-0.22,0.067L-295.585,296.727z"/>
	<path class="st0" d="M-294.257,296.713l0.265-0.022c0.286-0.031,0.286-0.067,0.286-0.961v-2.553c0-0.894,0-0.932-0.286-0.961
		l-0.265-0.021v-0.162h1.915c0.698,0,1.68,0.103,1.68,1.218c0,0.682-0.609,1.085-1.013,1.275c0.111,0.205,0.351,0.675,0.55,1.027
		c0.309,0.551,0.631,0.983,0.815,1.086c0.074,0.045,0.207,0.073,0.368,0.073v0.161h-0.566c-0.483,0-0.821-0.33-1.041-0.732
		l-0.293-0.565c-0.19-0.36-0.36-0.639-0.454-0.719c-0.117-0.095-0.301-0.095-0.455-0.095h-0.271v0.968c0,0.894,0,0.931,0.279,0.961
		l0.264,0.022v0.161h-1.776v-0.161H-294.257z M-293.024,294.557h0.418c0.616,0,1.174-0.332,1.174-1.159
		c0-0.859-0.565-1.122-1.136-1.122c-0.154,0-0.308,0.027-0.455,0.059L-293.024,294.557L-293.024,294.557z"/>
	<path class="st0" d="M-290.053,294.491c0-1.585,1.225-2.568,2.641-2.568c1.35,0,2.487,0.858,2.487,2.487
		c0,1.615-1.174,2.575-2.627,2.575C-289.004,296.985-290.053,296.076-290.053,294.491 M-287.412,296.743
		c1.247,0,1.717-1.072,1.717-2.142c0-1.386-0.689-2.436-1.841-2.436c-1.1,0-1.745,0.917-1.745,2.186
		C-289.282,295.847-288.52,296.743-287.412,296.743"/>
	<path class="st0" d="M-282.534,294.095c0.579,0.328,1.18,0.636,1.18,1.518c0,0.989-0.916,1.371-1.694,1.371
		c-0.573,0-0.925-0.154-1.153-0.293c-0.13-0.285-0.234-0.829-0.234-1.291l0.234-0.059c0.081,0.529,0.353,1.402,1.359,1.402
		c0.506,0,0.879-0.332,0.879-0.903c0-0.534-0.448-0.902-1.02-1.158l-0.467-0.258c-0.418-0.226-0.808-0.681-0.808-1.231
		c0-0.897,0.749-1.27,1.526-1.27c0.454,0,0.821,0.117,1.013,0.235c0.058,0.234,0.073,0.829,0.073,1.013h-0.184
		c-0.074-0.368-0.19-1.006-1.019-1.006c-0.426,0-0.799,0.308-0.799,0.8c0,0.434,0.314,0.667,0.711,0.902L-282.534,294.095z"/>
	<path class="st0" d="M-392.494,263.803c-9.133,0-16.538,7.404-16.538,16.538s7.405,16.539,16.538,16.539
		c9.134,0,16.539-7.405,16.539-16.539S-383.36,263.803-392.494,263.803 M-392.722,270.675c0.521,0.368,0.982,0.818,1.553,1.35
		c0.107,0.095,0.209,0.211,0.585,0.081c0.775-0.23,2.551-1.104,3.822-1.218c0.578-0.078,0.731,0,1.077,0.309
		c0.666,0.565,1.163,0.985,1.57,1.434c-1.313,0.15-1.733,0.255-2.017,0.326l-0.137,0.032l-0.025,0.007
		c-0.596,0.149-0.779,0.561-0.831,0.73c-0.021,0.073-0.041,0.172-0.041,0.288c0,0.189,0.061,0.427,0.249,0.675
		c0.331,0.534,0.513,0.903,0.629,1.183c-1.226,0.377-2.569,0.89-3.157,1.159c-0.367,0.167-0.632,0.492-0.706,0.867
		c-0.011,0.06-0.021,0.136-0.021,0.222c0,0.236,0.071,0.555,0.366,0.87c0.906,0.97,1.932,3.18,1.932,5.606
		c0,0.528-0.049,1.064-0.158,1.603c-0.509,2.519-2.207,4.441-5.045,5.711c-1.472,0.658-2.975,0.796-4.493,0.746
		c0.084-0.008,0.17-0.015,0.254-0.026c2.851-0.347,4.853-1.336,6.239-3.8c1.911-3.399,0.461-7.57-2.409-9.936
		c-0.815-0.671-1.756-1.188-2.664-1.731c-0.228-0.136-0.358-0.337-0.069-0.684c0.469-0.669,1.252-1.703,2.561-2.745
		c0.27-0.192,0.155-0.345,0.039-0.499c-0.462-0.385-0.77-0.617-1.348-0.963c-0.309-0.153-0.434-0.319-0.193-0.539
		c0.287-0.262,0.737-0.655,1.829-1.118C-393.098,270.473-392.856,270.563-392.722,270.675 M-403.486,273.617
		c0.227-0.449,0.762-1.452,1.245-2.056c0.114-0.144,0.215-0.202,0.473-0.158c0.465,0.078,1.287,0.425,2.359,0.725
		c0.198,0.055,0.314,0.055,0.484-0.136c0.439-0.492,1.671-1.628,3.675-2.459c0.227-0.094,0.528-0.099,0.805,0.037
		c0.242,0.117,0.508,0.231,0.822,0.393c-0.952,0.429-1.446,0.813-1.834,1.167c-0.33,0.302-0.401,0.623-0.401,0.845
		c0,0.053,0.004,0.099,0.01,0.139c0.051,0.373,0.296,0.675,0.719,0.903l0.056,0.031c-0.02-0.01-0.037-0.021-0.056-0.031
		c0.304,0.182,0.521,0.326,0.731,0.483c-1.083,0.945-1.78,1.859-2.229,2.498c-0.335,0.423-0.357,0.802-0.315,1.05
		c0.043,0.247,0.185,0.596,0.631,0.861l0.457,0.27c0.758,0.447,1.475,0.869,2.103,1.388c2.445,2.014,3.988,5.709,2.209,8.871
		c-1.194,2.123-2.923,3.215-5.605,3.542c-0.98,0.119-1.907,0.034-2.772-0.185c0.355,0.044,0.723,0.067,1.104,0.06
		c2.017-0.034,4.135-0.731,5.236-2.464c2.758-4.338-0.411-8.823-4.697-10.243c-0.973-0.323-2.565-0.671-3.823-0.829
		c-0.462-0.058-0.577-0.201-0.432-0.52c0.253-0.558,0.755-1.638,1.664-3.015c0.041-0.06,0.021-0.213-0.153-0.262
		c-0.466-0.131-1.426-0.39-2.205-0.508C-403.498,273.974-403.601,273.843-403.486,273.617 M-390.22,295.229
		c-9.544,1.465-14.399-5.706-14.399-5.706c2.191,2.121,5.915,5.566,11.565,2.956c8.204-3.671,5.784-11.866,3.543-14.267
		c-0.269-0.289-0.096-0.528,0.096-0.616c0.643-0.294,2.357-0.946,3.707-1.309c0.153-0.047,0.183-0.125,0.105-0.317
		c-0.115-0.336-0.25-0.846-0.924-1.934c-0.211-0.231-0.116-0.366,0.116-0.423c0.298-0.065,0.543-0.18,2.252-0.367
		c0.184-0.03,0.385,0.043,0.462,0.193c0.365,0.649,0.629,1.308,0.889,2.152c0.025,0.084,0.159,0.256,0.304,0.263
		c0.627,0.025,2.89,0.038,4.078,0.277c0.095,0.02,0.303,0.134,0.349,0.271c0.317,0.949,1.018,5.539-1,10.38
		C-381.385,292.325-385.867,294.561-390.22,295.229"/>
</g>
</svg>
